[
{
   "pk": 1, 
   "model": "auth.group", 
   "fields": {
      "name": "Administrador", 
      "permissions": [
         1, 
         2, 
         3, 
         31, 
         32, 
         33, 
         34, 
         35, 
         36, 
         7, 
         8, 
         9, 
         4, 
         5, 
         6, 
         10, 
         11, 
         12, 
         13, 
         14, 
         15, 
         16, 
         17, 
         18, 
         28, 
         29, 
         30, 
         25, 
         26, 
         27, 
         19, 
         20, 
         21
      ]
   }
},
{
   "pk": 2, 
   "model": "auth.group", 
   "fields": {
      "name": "Seguran\u00e7a", 
      "permissions": [
         1, 
         2, 
         3, 
         7, 
         8, 
         9, 
         4, 
         5, 
         6, 
         10, 
         11, 
         12, 
         13, 
         14, 
         15, 
         16, 
         17, 
         18, 
         28, 
         29, 
         30, 
         25, 
         26, 
         27, 
         19, 
         20, 
         21
      ]
   }
},
{
   "pk": 3, 
   "model": "auth.group", 
   "fields": {
      "name": "Redator", 
      "permissions": [
         1, 
         2, 
         3, 
         31, 
         32, 
         33, 
         34, 
         35, 
         36, 
         16, 
         17, 
         18, 
         28, 
         29, 
         30, 
         25, 
         26, 
         27, 
         19, 
         20, 
         21
      ]
   }
}
]
